<?xml version="1.0" encoding="UTF-8"?>
<kml xmlns="http://www.opengis.net/kml/2.2">
  <Document>
    <name>KmlFile</name>
    <Style id="transGreenPoly">
      <LineStyle>
        <width>1.5</width>
      </LineStyle>
      <PolyStyle>
        <color>7d00ff00</color>
      </PolyStyle>
    </Style>

    <Folder>
      <name>Campus San Pablo</name>
      <visibility>1</visibility>
      <description>A collection showing how easy it is to create 3-dimensional
          buildings</description>
      <Placemark>
        <name>Universida Catolica San Pablo</name>
        <visibility>1</visibility>
        <styleUrl>#transGreenPoly</styleUrl>
        <Polygon>
          <extrude>1</extrude>
          <altitudeMode>relativeToGround</altitudeMode>
          <outerBoundaryIs>
            <LinearRing>
              <coordinates>
              </coordinates>
            </LinearRing>
          </outerBoundaryIs>
        </Polygon>
      </Placemark>


    </Folder>
  </Document>
</kml>
